module gitlab.com/gozora/dd2go

// replace gitlab.com/gozora/dedupfs => ../dedupfs

go 1.17

require (
	github.com/inconshreveable/mousetrap v1.0.0 // indirect
	github.com/spf13/cobra v1.4.0
	github.com/spf13/pflag v1.0.5 // indirect
	gitlab.com/gozora/dedupfs v0.5.2
)
